%!PS-Adobe-3.0 EPSF-3.0
%%BoundingBox: 0 0 200 200
1 1 1 setrgbcolor
0 200 moveto
0 -200 rlineto 200 0 rlineto 0 200 rlineto closepath
fill
0 0 0 setrgbcolor
13 187 moveto
0 -6 rlineto 6 0 rlineto 0 6 rlineto closepath
fill
19 187 moveto
0 -6 rlineto 6 0 rlineto 0 6 rlineto closepath
fill
25 187 moveto
0 -6 rlineto 6 0 rlineto 0 6 rlineto closepath
fill
31 187 moveto
0 -6 rlineto 6 0 rlineto 0 6 rlineto closepath
fill
37 187 moveto
0 -6 rlineto 6 0 rlineto 0 6 rlineto closepath
fill
43 187 moveto
0 -6 rlineto 6 0 rlineto 0 6 rlineto closepath
fill
49 187 moveto
0 -6 rlineto 6 0 rlineto 0 6 rlineto closepath
fill
73 187 moveto
0 -6 rlineto 6 0 rlineto 0 6 rlineto closepath
fill
85 187 moveto
0 -6 rlineto 6 0 rlineto 0 6 rlineto closepath
fill
91 187 moveto
0 -6 rlineto 6 0 rlineto 0 6 rlineto closepath
fill
103 187 moveto
0 -6 rlineto 6 0 rlineto 0 6 rlineto closepath
fill
115 187 moveto
0 -6 rlineto 6 0 rlineto 0 6 rlineto closepath
fill
121 187 moveto
0 -6 rlineto 6 0 rlineto 0 6 rlineto closepath
fill
127 187 moveto
0 -6 rlineto 6 0 rlineto 0 6 rlineto closepath
fill
133 187 moveto
0 -6 rlineto 6 0 rlineto 0 6 rlineto closepath
fill
145 187 moveto
0 -6 rlineto 6 0 rlineto 0 6 rlineto closepath
fill
151 187 moveto
0 -6 rlineto 6 0 rlineto 0 6 rlineto closepath
fill
157 187 moveto
0 -6 rlineto 6 0 rlineto 0 6 rlineto closepath
fill
163 187 moveto
0 -6 rlineto 6 0 rlineto 0 6 rlineto closepath
fill
169 187 moveto
0 -6 rlineto 6 0 rlineto 0 6 rlineto closepath
fill
175 187 moveto
0 -6 rlineto 6 0 rlineto 0 6 rlineto closepath
fill
181 187 moveto
0 -6 rlineto 6 0 rlineto 0 6 rlineto closepath
fill
13 181 moveto
0 -6 rlineto 6 0 rlineto 0 6 rlineto closepath
fill
49 181 moveto
0 -6 rlineto 6 0 rlineto 0 6 rlineto closepath
fill
61 181 moveto
0 -6 rlineto 6 0 rlineto 0 6 rlineto closepath
fill
73 181 moveto
0 -6 rlineto 6 0 rlineto 0 6 rlineto closepath
fill
91 181 moveto
0 -6 rlineto 6 0 rlineto 0 6 rlineto closepath
fill
97 181 moveto
0 -6 rlineto 6 0 rlineto 0 6 rlineto closepath
fill
103 181 moveto
0 -6 rlineto 6 0 rlineto 0 6 rlineto closepath
fill
109 181 moveto
0 -6 rlineto 6 0 rlineto 0 6 rlineto closepath
fill
121 181 moveto
0 -6 rlineto 6 0 rlineto 0 6 rlineto closepath
fill
145 181 moveto
0 -6 rlineto 6 0 rlineto 0 6 rlineto closepath
fill
181 181 moveto
0 -6 rlineto 6 0 rlineto 0 6 rlineto closepath
fill
13 175 moveto
0 -6 rlineto 6 0 rlineto 0 6 rlineto closepath
fill
25 175 moveto
0 -6 rlineto 6 0 rlineto 0 6 rlineto closepath
fill
31 175 moveto
0 -6 rlineto 6 0 rlineto 0 6 rlineto closepath
fill
37 175 moveto
0 -6 rlineto 6 0 rlineto 0 6 rlineto closepath
fill
49 175 moveto
0 -6 rlineto 6 0 rlineto 0 6 rlineto closepath
fill
85 175 moveto
0 -6 rlineto 6 0 rlineto 0 6 rlineto closepath
fill
91 175 moveto
0 -6 rlineto 6 0 rlineto 0 6 rlineto closepath
fill
109 175 moveto
0 -6 rlineto 6 0 rlineto 0 6 rlineto closepath
fill
127 175 moveto
0 -6 rlineto 6 0 rlineto 0 6 rlineto closepath
fill
133 175 moveto
0 -6 rlineto 6 0 rlineto 0 6 rlineto closepath
fill
145 175 moveto
0 -6 rlineto 6 0 rlineto 0 6 rlineto closepath
fill
157 175 moveto
0 -6 rlineto 6 0 rlineto 0 6 rlineto closepath
fill
163 175 moveto
0 -6 rlineto 6 0 rlineto 0 6 rlineto closepath
fill
169 175 moveto
0 -6 rlineto 6 0 rlineto 0 6 rlineto closepath
fill
181 175 moveto
0 -6 rlineto 6 0 rlineto 0 6 rlineto closepath
fill
13 169 moveto
0 -6 rlineto 6 0 rlineto 0 6 rlineto closepath
fill
25 169 moveto
0 -6 rlineto 6 0 rlineto 0 6 rlineto closepath
fill
31 169 moveto
0 -6 rlineto 6 0 rlineto 0 6 rlineto closepath
fill
37 169 moveto
0 -6 rlineto 6 0 rlineto 0 6 rlineto closepath
fill
49 169 moveto
0 -6 rlineto 6 0 rlineto 0 6 rlineto closepath
fill
61 169 moveto
0 -6 rlineto 6 0 rlineto 0 6 rlineto closepath
fill
67 169 moveto
0 -6 rlineto 6 0 rlineto 0 6 rlineto closepath
fill
73 169 moveto
0 -6 rlineto 6 0 rlineto 0 6 rlineto closepath
fill
85 169 moveto
0 -6 rlineto 6 0 rlineto 0 6 rlineto closepath
fill
97 169 moveto
0 -6 rlineto 6 0 rlineto 0 6 rlineto closepath
fill
115 169 moveto
0 -6 rlineto 6 0 rlineto 0 6 rlineto closepath
fill
121 169 moveto
0 -6 rlineto 6 0 rlineto 0 6 rlineto closepath
fill
127 169 moveto
0 -6 rlineto 6 0 rlineto 0 6 rlineto closepath
fill
145 169 moveto
0 -6 rlineto 6 0 rlineto 0 6 rlineto closepath
fill
157 169 moveto
0 -6 rlineto 6 0 rlineto 0 6 rlineto closepath
fill
163 169 moveto
0 -6 rlineto 6 0 rlineto 0 6 rlineto closepath
fill
169 169 moveto
0 -6 rlineto 6 0 rlineto 0 6 rlineto closepath
fill
181 169 moveto
0 -6 rlineto 6 0 rlineto 0 6 rlineto closepath
fill
13 163 moveto
0 -6 rlineto 6 0 rlineto 0 6 rlineto closepath
fill
25 163 moveto
0 -6 rlineto 6 0 rlineto 0 6 rlineto closepath
fill
31 163 moveto
0 -6 rlineto 6 0 rlineto 0 6 rlineto closepath
fill
37 163 moveto
0 -6 rlineto 6 0 rlineto 0 6 rlineto closepath
fill
49 163 moveto
0 -6 rlineto 6 0 rlineto 0 6 rlineto closepath
fill
67 163 moveto
0 -6 rlineto 6 0 rlineto 0 6 rlineto closepath
fill
115 163 moveto
0 -6 rlineto 6 0 rlineto 0 6 rlineto closepath
fill
121 163 moveto
0 -6 rlineto 6 0 rlineto 0 6 rlineto closepath
fill
127 163 moveto
0 -6 rlineto 6 0 rlineto 0 6 rlineto closepath
fill
133 163 moveto
0 -6 rlineto 6 0 rlineto 0 6 rlineto closepath
fill
145 163 moveto
0 -6 rlineto 6 0 rlineto 0 6 rlineto closepath
fill
157 163 moveto
0 -6 rlineto 6 0 rlineto 0 6 rlineto closepath
fill
163 163 moveto
0 -6 rlineto 6 0 rlineto 0 6 rlineto closepath
fill
169 163 moveto
0 -6 rlineto 6 0 rlineto 0 6 rlineto closepath
fill
181 163 moveto
0 -6 rlineto 6 0 rlineto 0 6 rlineto closepath
fill
13 157 moveto
0 -6 rlineto 6 0 rlineto 0 6 rlineto closepath
fill
49 157 moveto
0 -6 rlineto 6 0 rlineto 0 6 rlineto closepath
fill
61 157 moveto
0 -6 rlineto 6 0 rlineto 0 6 rlineto closepath
fill
67 157 moveto
0 -6 rlineto 6 0 rlineto 0 6 rlineto closepath
fill
79 157 moveto
0 -6 rlineto 6 0 rlineto 0 6 rlineto closepath
fill
85 157 moveto
0 -6 rlineto 6 0 rlineto 0 6 rlineto closepath
fill
103 157 moveto
0 -6 rlineto 6 0 rlineto 0 6 rlineto closepath
fill
109 157 moveto
0 -6 rlineto 6 0 rlineto 0 6 rlineto closepath
fill
115 157 moveto
0 -6 rlineto 6 0 rlineto 0 6 rlineto closepath
fill
133 157 moveto
0 -6 rlineto 6 0 rlineto 0 6 rlineto closepath
fill
145 157 moveto
0 -6 rlineto 6 0 rlineto 0 6 rlineto closepath
fill
181 157 moveto
0 -6 rlineto 6 0 rlineto 0 6 rlineto closepath
fill
13 151 moveto
0 -6 rlineto 6 0 rlineto 0 6 rlineto closepath
fill
19 151 moveto
0 -6 rlineto 6 0 rlineto 0 6 rlineto closepath
fill
25 151 moveto
0 -6 rlineto 6 0 rlineto 0 6 rlineto closepath
fill
31 151 moveto
0 -6 rlineto 6 0 rlineto 0 6 rlineto closepath
fill
37 151 moveto
0 -6 rlineto 6 0 rlineto 0 6 rlineto closepath
fill
43 151 moveto
0 -6 rlineto 6 0 rlineto 0 6 rlineto closepath
fill
49 151 moveto
0 -6 rlineto 6 0 rlineto 0 6 rlineto closepath
fill
61 151 moveto
0 -6 rlineto 6 0 rlineto 0 6 rlineto closepath
fill
73 151 moveto
0 -6 rlineto 6 0 rlineto 0 6 rlineto closepath
fill
85 151 moveto
0 -6 rlineto 6 0 rlineto 0 6 rlineto closepath
fill
97 151 moveto
0 -6 rlineto 6 0 rlineto 0 6 rlineto closepath
fill
109 151 moveto
0 -6 rlineto 6 0 rlineto 0 6 rlineto closepath
fill
121 151 moveto
0 -6 rlineto 6 0 rlineto 0 6 rlineto closepath
fill
133 151 moveto
0 -6 rlineto 6 0 rlineto 0 6 rlineto closepath
fill
145 151 moveto
0 -6 rlineto 6 0 rlineto 0 6 rlineto closepath
fill
151 151 moveto
0 -6 rlineto 6 0 rlineto 0 6 rlineto closepath
fill
157 151 moveto
0 -6 rlineto 6 0 rlineto 0 6 rlineto closepath
fill
163 151 moveto
0 -6 rlineto 6 0 rlineto 0 6 rlineto closepath
fill
169 151 moveto
0 -6 rlineto 6 0 rlineto 0 6 rlineto closepath
fill
175 151 moveto
0 -6 rlineto 6 0 rlineto 0 6 rlineto closepath
fill
181 151 moveto
0 -6 rlineto 6 0 rlineto 0 6 rlineto closepath
fill
67 145 moveto
0 -6 rlineto 6 0 rlineto 0 6 rlineto closepath
fill
73 145 moveto
0 -6 rlineto 6 0 rlineto 0 6 rlineto closepath
fill
79 145 moveto
0 -6 rlineto 6 0 rlineto 0 6 rlineto closepath
fill
97 145 moveto
0 -6 rlineto 6 0 rlineto 0 6 rlineto closepath
fill
103 145 moveto
0 -6 rlineto 6 0 rlineto 0 6 rlineto closepath
fill
121 145 moveto
0 -6 rlineto 6 0 rlineto 0 6 rlineto closepath
fill
133 145 moveto
0 -6 rlineto 6 0 rlineto 0 6 rlineto closepath
fill
13 139 moveto
0 -6 rlineto 6 0 rlineto 0 6 rlineto closepath
fill
19 139 moveto
0 -6 rlineto 6 0 rlineto 0 6 rlineto closepath
fill
25 139 moveto
0 -6 rlineto 6 0 rlineto 0 6 rlineto closepath
fill
31 139 moveto
0 -6 rlineto 6 0 rlineto 0 6 rlineto closepath
fill
37 139 moveto
0 -6 rlineto 6 0 rlineto 0 6 rlineto closepath
fill
49 139 moveto
0 -6 rlineto 6 0 rlineto 0 6 rlineto closepath
fill
55 139 moveto
0 -6 rlineto 6 0 rlineto 0 6 rlineto closepath
fill
61 139 moveto
0 -6 rlineto 6 0 rlineto 0 6 rlineto closepath
fill
67 139 moveto
0 -6 rlineto 6 0 rlineto 0 6 rlineto closepath
fill
79 139 moveto
0 -6 rlineto 6 0 rlineto 0 6 rlineto closepath
fill
103 139 moveto
0 -6 rlineto 6 0 rlineto 0 6 rlineto closepath
fill
115 139 moveto
0 -6 rlineto 6 0 rlineto 0 6 rlineto closepath
fill
133 139 moveto
0 -6 rlineto 6 0 rlineto 0 6 rlineto closepath
fill
139 139 moveto
0 -6 rlineto 6 0 rlineto 0 6 rlineto closepath
fill
151 139 moveto
0 -6 rlineto 6 0 rlineto 0 6 rlineto closepath
fill
163 139 moveto
0 -6 rlineto 6 0 rlineto 0 6 rlineto closepath
fill
175 139 moveto
0 -6 rlineto 6 0 rlineto 0 6 rlineto closepath
fill
25 133 moveto
0 -6 rlineto 6 0 rlineto 0 6 rlineto closepath
fill
37 133 moveto
0 -6 rlineto 6 0 rlineto 0 6 rlineto closepath
fill
43 133 moveto
0 -6 rlineto 6 0 rlineto 0 6 rlineto closepath
fill
61 133 moveto
0 -6 rlineto 6 0 rlineto 0 6 rlineto closepath
fill
73 133 moveto
0 -6 rlineto 6 0 rlineto 0 6 rlineto closepath
fill
85 133 moveto
0 -6 rlineto 6 0 rlineto 0 6 rlineto closepath
fill
91 133 moveto
0 -6 rlineto 6 0 rlineto 0 6 rlineto closepath
fill
97 133 moveto
0 -6 rlineto 6 0 rlineto 0 6 rlineto closepath
fill
109 133 moveto
0 -6 rlineto 6 0 rlineto 0 6 rlineto closepath
fill
121 133 moveto
0 -6 rlineto 6 0 rlineto 0 6 rlineto closepath
fill
127 133 moveto
0 -6 rlineto 6 0 rlineto 0 6 rlineto closepath
fill
133 133 moveto
0 -6 rlineto 6 0 rlineto 0 6 rlineto closepath
fill
139 133 moveto
0 -6 rlineto 6 0 rlineto 0 6 rlineto closepath
fill
145 133 moveto
0 -6 rlineto 6 0 rlineto 0 6 rlineto closepath
fill
151 133 moveto
0 -6 rlineto 6 0 rlineto 0 6 rlineto closepath
fill
157 133 moveto
0 -6 rlineto 6 0 rlineto 0 6 rlineto closepath
fill
181 133 moveto
0 -6 rlineto 6 0 rlineto 0 6 rlineto closepath
fill
49 127 moveto
0 -6 rlineto 6 0 rlineto 0 6 rlineto closepath
fill
55 127 moveto
0 -6 rlineto 6 0 rlineto 0 6 rlineto closepath
fill
61 127 moveto
0 -6 rlineto 6 0 rlineto 0 6 rlineto closepath
fill
73 127 moveto
0 -6 rlineto 6 0 rlineto 0 6 rlineto closepath
fill
91 127 moveto
0 -6 rlineto 6 0 rlineto 0 6 rlineto closepath
fill
97 127 moveto
0 -6 rlineto 6 0 rlineto 0 6 rlineto closepath
fill
103 127 moveto
0 -6 rlineto 6 0 rlineto 0 6 rlineto closepath
fill
109 127 moveto
0 -6 rlineto 6 0 rlineto 0 6 rlineto closepath
fill
115 127 moveto
0 -6 rlineto 6 0 rlineto 0 6 rlineto closepath
fill
121 127 moveto
0 -6 rlineto 6 0 rlineto 0 6 rlineto closepath
fill
133 127 moveto
0 -6 rlineto 6 0 rlineto 0 6 rlineto closepath
fill
145 127 moveto
0 -6 rlineto 6 0 rlineto 0 6 rlineto closepath
fill
13 121 moveto
0 -6 rlineto 6 0 rlineto 0 6 rlineto closepath
fill
55 121 moveto
0 -6 rlineto 6 0 rlineto 0 6 rlineto closepath
fill
61 121 moveto
0 -6 rlineto 6 0 rlineto 0 6 rlineto closepath
fill
85 121 moveto
0 -6 rlineto 6 0 rlineto 0 6 rlineto closepath
fill
91 121 moveto
0 -6 rlineto 6 0 rlineto 0 6 rlineto closepath
fill
127 121 moveto
0 -6 rlineto 6 0 rlineto 0 6 rlineto closepath
fill
151 121 moveto
0 -6 rlineto 6 0 rlineto 0 6 rlineto closepath
fill
175 121 moveto
0 -6 rlineto 6 0 rlineto 0 6 rlineto closepath
fill
13 115 moveto
0 -6 rlineto 6 0 rlineto 0 6 rlineto closepath
fill
19 115 moveto
0 -6 rlineto 6 0 rlineto 0 6 rlineto closepath
fill
25 115 moveto
0 -6 rlineto 6 0 rlineto 0 6 rlineto closepath
fill
31 115 moveto
0 -6 rlineto 6 0 rlineto 0 6 rlineto closepath
fill
37 115 moveto
0 -6 rlineto 6 0 rlineto 0 6 rlineto closepath
fill
49 115 moveto
0 -6 rlineto 6 0 rlineto 0 6 rlineto closepath
fill
67 115 moveto
0 -6 rlineto 6 0 rlineto 0 6 rlineto closepath
fill
73 115 moveto
0 -6 rlineto 6 0 rlineto 0 6 rlineto closepath
fill
85 115 moveto
0 -6 rlineto 6 0 rlineto 0 6 rlineto closepath
fill
97 115 moveto
0 -6 rlineto 6 0 rlineto 0 6 rlineto closepath
fill
115 115 moveto
0 -6 rlineto 6 0 rlineto 0 6 rlineto closepath
fill
163 115 moveto
0 -6 rlineto 6 0 rlineto 0 6 rlineto closepath
fill
169 115 moveto
0 -6 rlineto 6 0 rlineto 0 6 rlineto closepath
fill
19 109 moveto
0 -6 rlineto 6 0 rlineto 0 6 rlineto closepath
fill
25 109 moveto
0 -6 rlineto 6 0 rlineto 0 6 rlineto closepath
fill
37 109 moveto
0 -6 rlineto 6 0 rlineto 0 6 rlineto closepath
fill
43 109 moveto
0 -6 rlineto 6 0 rlineto 0 6 rlineto closepath
fill
109 109 moveto
0 -6 rlineto 6 0 rlineto 0 6 rlineto closepath
fill
115 109 moveto
0 -6 rlineto 6 0 rlineto 0 6 rlineto closepath
fill
127 109 moveto
0 -6 rlineto 6 0 rlineto 0 6 rlineto closepath
fill
133 109 moveto
0 -6 rlineto 6 0 rlineto 0 6 rlineto closepath
fill
145 109 moveto
0 -6 rlineto 6 0 rlineto 0 6 rlineto closepath
fill
157 109 moveto
0 -6 rlineto 6 0 rlineto 0 6 rlineto closepath
fill
169 109 moveto
0 -6 rlineto 6 0 rlineto 0 6 rlineto closepath
fill
181 109 moveto
0 -6 rlineto 6 0 rlineto 0 6 rlineto closepath
fill
25 103 moveto
0 -6 rlineto 6 0 rlineto 0 6 rlineto closepath
fill
37 103 moveto
0 -6 rlineto 6 0 rlineto 0 6 rlineto closepath
fill
43 103 moveto
0 -6 rlineto 6 0 rlineto 0 6 rlineto closepath
fill
49 103 moveto
0 -6 rlineto 6 0 rlineto 0 6 rlineto closepath
fill
61 103 moveto
0 -6 rlineto 6 0 rlineto 0 6 rlineto closepath
fill
73 103 moveto
0 -6 rlineto 6 0 rlineto 0 6 rlineto closepath
fill
79 103 moveto
0 -6 rlineto 6 0 rlineto 0 6 rlineto closepath
fill
85 103 moveto
0 -6 rlineto 6 0 rlineto 0 6 rlineto closepath
fill
103 103 moveto
0 -6 rlineto 6 0 rlineto 0 6 rlineto closepath
fill
115 103 moveto
0 -6 rlineto 6 0 rlineto 0 6 rlineto closepath
fill
121 103 moveto
0 -6 rlineto 6 0 rlineto 0 6 rlineto closepath
fill
139 103 moveto
0 -6 rlineto 6 0 rlineto 0 6 rlineto closepath
fill
151 103 moveto
0 -6 rlineto 6 0 rlineto 0 6 rlineto closepath
fill
157 103 moveto
0 -6 rlineto 6 0 rlineto 0 6 rlineto closepath
fill
169 103 moveto
0 -6 rlineto 6 0 rlineto 0 6 rlineto closepath
fill
25 97 moveto
0 -6 rlineto 6 0 rlineto 0 6 rlineto closepath
fill
31 97 moveto
0 -6 rlineto 6 0 rlineto 0 6 rlineto closepath
fill
37 97 moveto
0 -6 rlineto 6 0 rlineto 0 6 rlineto closepath
fill
43 97 moveto
0 -6 rlineto 6 0 rlineto 0 6 rlineto closepath
fill
79 97 moveto
0 -6 rlineto 6 0 rlineto 0 6 rlineto closepath
fill
97 97 moveto
0 -6 rlineto 6 0 rlineto 0 6 rlineto closepath
fill
109 97 moveto
0 -6 rlineto 6 0 rlineto 0 6 rlineto closepath
fill
121 97 moveto
0 -6 rlineto 6 0 rlineto 0 6 rlineto closepath
fill
127 97 moveto
0 -6 rlineto 6 0 rlineto 0 6 rlineto closepath
fill
133 97 moveto
0 -6 rlineto 6 0 rlineto 0 6 rlineto closepath
fill
145 97 moveto
0 -6 rlineto 6 0 rlineto 0 6 rlineto closepath
fill
157 97 moveto
0 -6 rlineto 6 0 rlineto 0 6 rlineto closepath
fill
175 97 moveto
0 -6 rlineto 6 0 rlineto 0 6 rlineto closepath
fill
13 91 moveto
0 -6 rlineto 6 0 rlineto 0 6 rlineto closepath
fill
19 91 moveto
0 -6 rlineto 6 0 rlineto 0 6 rlineto closepath
fill
31 91 moveto
0 -6 rlineto 6 0 rlineto 0 6 rlineto closepath
fill
49 91 moveto
0 -6 rlineto 6 0 rlineto 0 6 rlineto closepath
fill
55 91 moveto
0 -6 rlineto 6 0 rlineto 0 6 rlineto closepath
fill
61 91 moveto
0 -6 rlineto 6 0 rlineto 0 6 rlineto closepath
fill
67 91 moveto
0 -6 rlineto 6 0 rlineto 0 6 rlineto closepath
fill
79 91 moveto
0 -6 rlineto 6 0 rlineto 0 6 rlineto closepath
fill
115 91 moveto
0 -6 rlineto 6 0 rlineto 0 6 rlineto closepath
fill
121 91 moveto
0 -6 rlineto 6 0 rlineto 0 6 rlineto closepath
fill
127 91 moveto
0 -6 rlineto 6 0 rlineto 0 6 rlineto closepath
fill
139 91 moveto
0 -6 rlineto 6 0 rlineto 0 6 rlineto closepath
fill
169 91 moveto
0 -6 rlineto 6 0 rlineto 0 6 rlineto closepath
fill
13 85 moveto
0 -6 rlineto 6 0 rlineto 0 6 rlineto closepath
fill
19 85 moveto
0 -6 rlineto 6 0 rlineto 0 6 rlineto closepath
fill
25 85 moveto
0 -6 rlineto 6 0 rlineto 0 6 rlineto closepath
fill
31 85 moveto
0 -6 rlineto 6 0 rlineto 0 6 rlineto closepath
fill
37 85 moveto
0 -6 rlineto 6 0 rlineto 0 6 rlineto closepath
fill
43 85 moveto
0 -6 rlineto 6 0 rlineto 0 6 rlineto closepath
fill
67 85 moveto
0 -6 rlineto 6 0 rlineto 0 6 rlineto closepath
fill
73 85 moveto
0 -6 rlineto 6 0 rlineto 0 6 rlineto closepath
fill
85 85 moveto
0 -6 rlineto 6 0 rlineto 0 6 rlineto closepath
fill
91 85 moveto
0 -6 rlineto 6 0 rlineto 0 6 rlineto closepath
fill
97 85 moveto
0 -6 rlineto 6 0 rlineto 0 6 rlineto closepath
fill
109 85 moveto
0 -6 rlineto 6 0 rlineto 0 6 rlineto closepath
fill
115 85 moveto
0 -6 rlineto 6 0 rlineto 0 6 rlineto closepath
fill
121 85 moveto
0 -6 rlineto 6 0 rlineto 0 6 rlineto closepath
fill
127 85 moveto
0 -6 rlineto 6 0 rlineto 0 6 rlineto closepath
fill
139 85 moveto
0 -6 rlineto 6 0 rlineto 0 6 rlineto closepath
fill
145 85 moveto
0 -6 rlineto 6 0 rlineto 0 6 rlineto closepath
fill
151 85 moveto
0 -6 rlineto 6 0 rlineto 0 6 rlineto closepath
fill
157 85 moveto
0 -6 rlineto 6 0 rlineto 0 6 rlineto closepath
fill
163 85 moveto
0 -6 rlineto 6 0 rlineto 0 6 rlineto closepath
fill
169 85 moveto
0 -6 rlineto 6 0 rlineto 0 6 rlineto closepath
fill
181 85 moveto
0 -6 rlineto 6 0 rlineto 0 6 rlineto closepath
fill
13 79 moveto
0 -6 rlineto 6 0 rlineto 0 6 rlineto closepath
fill
25 79 moveto
0 -6 rlineto 6 0 rlineto 0 6 rlineto closepath
fill
37 79 moveto
0 -6 rlineto 6 0 rlineto 0 6 rlineto closepath
fill
49 79 moveto
0 -6 rlineto 6 0 rlineto 0 6 rlineto closepath
fill
61 79 moveto
0 -6 rlineto 6 0 rlineto 0 6 rlineto closepath
fill
67 79 moveto
0 -6 rlineto 6 0 rlineto 0 6 rlineto closepath
fill
91 79 moveto
0 -6 rlineto 6 0 rlineto 0 6 rlineto closepath
fill
97 79 moveto
0 -6 rlineto 6 0 rlineto 0 6 rlineto closepath
fill
103 79 moveto
0 -6 rlineto 6 0 rlineto 0 6 rlineto closepath
fill
109 79 moveto
0 -6 rlineto 6 0 rlineto 0 6 rlineto closepath
fill
115 79 moveto
0 -6 rlineto 6 0 rlineto 0 6 rlineto closepath
fill
145 79 moveto
0 -6 rlineto 6 0 rlineto 0 6 rlineto closepath
fill
151 79 moveto
0 -6 rlineto 6 0 rlineto 0 6 rlineto closepath
fill
157 79 moveto
0 -6 rlineto 6 0 rlineto 0 6 rlineto closepath
fill
163 79 moveto
0 -6 rlineto 6 0 rlineto 0 6 rlineto closepath
fill
169 79 moveto
0 -6 rlineto 6 0 rlineto 0 6 rlineto closepath
fill
13 73 moveto
0 -6 rlineto 6 0 rlineto 0 6 rlineto closepath
fill
25 73 moveto
0 -6 rlineto 6 0 rlineto 0 6 rlineto closepath
fill
31 73 moveto
0 -6 rlineto 6 0 rlineto 0 6 rlineto closepath
fill
37 73 moveto
0 -6 rlineto 6 0 rlineto 0 6 rlineto closepath
fill
55 73 moveto
0 -6 rlineto 6 0 rlineto 0 6 rlineto closepath
fill
67 73 moveto
0 -6 rlineto 6 0 rlineto 0 6 rlineto closepath
fill
85 73 moveto
0 -6 rlineto 6 0 rlineto 0 6 rlineto closepath
fill
91 73 moveto
0 -6 rlineto 6 0 rlineto 0 6 rlineto closepath
fill
103 73 moveto
0 -6 rlineto 6 0 rlineto 0 6 rlineto closepath
fill
127 73 moveto
0 -6 rlineto 6 0 rlineto 0 6 rlineto closepath
fill
133 73 moveto
0 -6 rlineto 6 0 rlineto 0 6 rlineto closepath
fill
139 73 moveto
0 -6 rlineto 6 0 rlineto 0 6 rlineto closepath
fill
145 73 moveto
0 -6 rlineto 6 0 rlineto 0 6 rlineto closepath
fill
175 73 moveto
0 -6 rlineto 6 0 rlineto 0 6 rlineto closepath
fill
13 67 moveto
0 -6 rlineto 6 0 rlineto 0 6 rlineto closepath
fill
49 67 moveto
0 -6 rlineto 6 0 rlineto 0 6 rlineto closepath
fill
55 67 moveto
0 -6 rlineto 6 0 rlineto 0 6 rlineto closepath
fill
67 67 moveto
0 -6 rlineto 6 0 rlineto 0 6 rlineto closepath
fill
73 67 moveto
0 -6 rlineto 6 0 rlineto 0 6 rlineto closepath
fill
85 67 moveto
0 -6 rlineto 6 0 rlineto 0 6 rlineto closepath
fill
97 67 moveto
0 -6 rlineto 6 0 rlineto 0 6 rlineto closepath
fill
103 67 moveto
0 -6 rlineto 6 0 rlineto 0 6 rlineto closepath
fill
115 67 moveto
0 -6 rlineto 6 0 rlineto 0 6 rlineto closepath
fill
133 67 moveto
0 -6 rlineto 6 0 rlineto 0 6 rlineto closepath
fill
139 67 moveto
0 -6 rlineto 6 0 rlineto 0 6 rlineto closepath
fill
145 67 moveto
0 -6 rlineto 6 0 rlineto 0 6 rlineto closepath
fill
151 67 moveto
0 -6 rlineto 6 0 rlineto 0 6 rlineto closepath
fill
157 67 moveto
0 -6 rlineto 6 0 rlineto 0 6 rlineto closepath
fill
169 67 moveto
0 -6 rlineto 6 0 rlineto 0 6 rlineto closepath
fill
175 67 moveto
0 -6 rlineto 6 0 rlineto 0 6 rlineto closepath
fill
181 67 moveto
0 -6 rlineto 6 0 rlineto 0 6 rlineto closepath
fill
61 61 moveto
0 -6 rlineto 6 0 rlineto 0 6 rlineto closepath
fill
73 61 moveto
0 -6 rlineto 6 0 rlineto 0 6 rlineto closepath
fill
109 61 moveto
0 -6 rlineto 6 0 rlineto 0 6 rlineto closepath
fill
115 61 moveto
0 -6 rlineto 6 0 rlineto 0 6 rlineto closepath
fill
133 61 moveto
0 -6 rlineto 6 0 rlineto 0 6 rlineto closepath
fill
157 61 moveto
0 -6 rlineto 6 0 rlineto 0 6 rlineto closepath
fill
163 61 moveto
0 -6 rlineto 6 0 rlineto 0 6 rlineto closepath
fill
169 61 moveto
0 -6 rlineto 6 0 rlineto 0 6 rlineto closepath
fill
175 61 moveto
0 -6 rlineto 6 0 rlineto 0 6 rlineto closepath
fill
181 61 moveto
0 -6 rlineto 6 0 rlineto 0 6 rlineto closepath
fill
13 55 moveto
0 -6 rlineto 6 0 rlineto 0 6 rlineto closepath
fill
19 55 moveto
0 -6 rlineto 6 0 rlineto 0 6 rlineto closepath
fill
25 55 moveto
0 -6 rlineto 6 0 rlineto 0 6 rlineto closepath
fill
31 55 moveto
0 -6 rlineto 6 0 rlineto 0 6 rlineto closepath
fill
37 55 moveto
0 -6 rlineto 6 0 rlineto 0 6 rlineto closepath
fill
43 55 moveto
0 -6 rlineto 6 0 rlineto 0 6 rlineto closepath
fill
49 55 moveto
0 -6 rlineto 6 0 rlineto 0 6 rlineto closepath
fill
61 55 moveto
0 -6 rlineto 6 0 rlineto 0 6 rlineto closepath
fill
73 55 moveto
0 -6 rlineto 6 0 rlineto 0 6 rlineto closepath
fill
79 55 moveto
0 -6 rlineto 6 0 rlineto 0 6 rlineto closepath
fill
85 55 moveto
0 -6 rlineto 6 0 rlineto 0 6 rlineto closepath
fill
103 55 moveto
0 -6 rlineto 6 0 rlineto 0 6 rlineto closepath
fill
115 55 moveto
0 -6 rlineto 6 0 rlineto 0 6 rlineto closepath
fill
127 55 moveto
0 -6 rlineto 6 0 rlineto 0 6 rlineto closepath
fill
133 55 moveto
0 -6 rlineto 6 0 rlineto 0 6 rlineto closepath
fill
145 55 moveto
0 -6 rlineto 6 0 rlineto 0 6 rlineto closepath
fill
157 55 moveto
0 -6 rlineto 6 0 rlineto 0 6 rlineto closepath
fill
163 55 moveto
0 -6 rlineto 6 0 rlineto 0 6 rlineto closepath
fill
169 55 moveto
0 -6 rlineto 6 0 rlineto 0 6 rlineto closepath
fill
13 49 moveto
0 -6 rlineto 6 0 rlineto 0 6 rlineto closepath
fill
49 49 moveto
0 -6 rlineto 6 0 rlineto 0 6 rlineto closepath
fill
67 49 moveto
0 -6 rlineto 6 0 rlineto 0 6 rlineto closepath
fill
79 49 moveto
0 -6 rlineto 6 0 rlineto 0 6 rlineto closepath
fill
97 49 moveto
0 -6 rlineto 6 0 rlineto 0 6 rlineto closepath
fill
103 49 moveto
0 -6 rlineto 6 0 rlineto 0 6 rlineto closepath
fill
109 49 moveto
0 -6 rlineto 6 0 rlineto 0 6 rlineto closepath
fill
121 49 moveto
0 -6 rlineto 6 0 rlineto 0 6 rlineto closepath
fill
127 49 moveto
0 -6 rlineto 6 0 rlineto 0 6 rlineto closepath
fill
133 49 moveto
0 -6 rlineto 6 0 rlineto 0 6 rlineto closepath
fill
157 49 moveto
0 -6 rlineto 6 0 rlineto 0 6 rlineto closepath
fill
163 49 moveto
0 -6 rlineto 6 0 rlineto 0 6 rlineto closepath
fill
175 49 moveto
0 -6 rlineto 6 0 rlineto 0 6 rlineto closepath
fill
13 43 moveto
0 -6 rlineto 6 0 rlineto 0 6 rlineto closepath
fill
25 43 moveto
0 -6 rlineto 6 0 rlineto 0 6 rlineto closepath
fill
31 43 moveto
0 -6 rlineto 6 0 rlineto 0 6 rlineto closepath
fill
37 43 moveto
0 -6 rlineto 6 0 rlineto 0 6 rlineto closepath
fill
49 43 moveto
0 -6 rlineto 6 0 rlineto 0 6 rlineto closepath
fill
61 43 moveto
0 -6 rlineto 6 0 rlineto 0 6 rlineto closepath
fill
67 43 moveto
0 -6 rlineto 6 0 rlineto 0 6 rlineto closepath
fill
79 43 moveto
0 -6 rlineto 6 0 rlineto 0 6 rlineto closepath
fill
115 43 moveto
0 -6 rlineto 6 0 rlineto 0 6 rlineto closepath
fill
133 43 moveto
0 -6 rlineto 6 0 rlineto 0 6 rlineto closepath
fill
139 43 moveto
0 -6 rlineto 6 0 rlineto 0 6 rlineto closepath
fill
145 43 moveto
0 -6 rlineto 6 0 rlineto 0 6 rlineto closepath
fill
151 43 moveto
0 -6 rlineto 6 0 rlineto 0 6 rlineto closepath
fill
157 43 moveto
0 -6 rlineto 6 0 rlineto 0 6 rlineto closepath
fill
169 43 moveto
0 -6 rlineto 6 0 rlineto 0 6 rlineto closepath
fill
13 37 moveto
0 -6 rlineto 6 0 rlineto 0 6 rlineto closepath
fill
25 37 moveto
0 -6 rlineto 6 0 rlineto 0 6 rlineto closepath
fill
31 37 moveto
0 -6 rlineto 6 0 rlineto 0 6 rlineto closepath
fill
37 37 moveto
0 -6 rlineto 6 0 rlineto 0 6 rlineto closepath
fill
49 37 moveto
0 -6 rlineto 6 0 rlineto 0 6 rlineto closepath
fill
61 37 moveto
0 -6 rlineto 6 0 rlineto 0 6 rlineto closepath
fill
73 37 moveto
0 -6 rlineto 6 0 rlineto 0 6 rlineto closepath
fill
85 37 moveto
0 -6 rlineto 6 0 rlineto 0 6 rlineto closepath
fill
91 37 moveto
0 -6 rlineto 6 0 rlineto 0 6 rlineto closepath
fill
97 37 moveto
0 -6 rlineto 6 0 rlineto 0 6 rlineto closepath
fill
109 37 moveto
0 -6 rlineto 6 0 rlineto 0 6 rlineto closepath
fill
133 37 moveto
0 -6 rlineto 6 0 rlineto 0 6 rlineto closepath
fill
151 37 moveto
0 -6 rlineto 6 0 rlineto 0 6 rlineto closepath
fill
175 37 moveto
0 -6 rlineto 6 0 rlineto 0 6 rlineto closepath
fill
181 37 moveto
0 -6 rlineto 6 0 rlineto 0 6 rlineto closepath
fill
13 31 moveto
0 -6 rlineto 6 0 rlineto 0 6 rlineto closepath
fill
25 31 moveto
0 -6 rlineto 6 0 rlineto 0 6 rlineto closepath
fill
31 31 moveto
0 -6 rlineto 6 0 rlineto 0 6 rlineto closepath
fill
37 31 moveto
0 -6 rlineto 6 0 rlineto 0 6 rlineto closepath
fill
49 31 moveto
0 -6 rlineto 6 0 rlineto 0 6 rlineto closepath
fill
61 31 moveto
0 -6 rlineto 6 0 rlineto 0 6 rlineto closepath
fill
91 31 moveto
0 -6 rlineto 6 0 rlineto 0 6 rlineto closepath
fill
97 31 moveto
0 -6 rlineto 6 0 rlineto 0 6 rlineto closepath
fill
103 31 moveto
0 -6 rlineto 6 0 rlineto 0 6 rlineto closepath
fill
109 31 moveto
0 -6 rlineto 6 0 rlineto 0 6 rlineto closepath
fill
121 31 moveto
0 -6 rlineto 6 0 rlineto 0 6 rlineto closepath
fill
127 31 moveto
0 -6 rlineto 6 0 rlineto 0 6 rlineto closepath
fill
139 31 moveto
0 -6 rlineto 6 0 rlineto 0 6 rlineto closepath
fill
145 31 moveto
0 -6 rlineto 6 0 rlineto 0 6 rlineto closepath
fill
151 31 moveto
0 -6 rlineto 6 0 rlineto 0 6 rlineto closepath
fill
157 31 moveto
0 -6 rlineto 6 0 rlineto 0 6 rlineto closepath
fill
163 31 moveto
0 -6 rlineto 6 0 rlineto 0 6 rlineto closepath
fill
175 31 moveto
0 -6 rlineto 6 0 rlineto 0 6 rlineto closepath
fill
13 25 moveto
0 -6 rlineto 6 0 rlineto 0 6 rlineto closepath
fill
49 25 moveto
0 -6 rlineto 6 0 rlineto 0 6 rlineto closepath
fill
61 25 moveto
0 -6 rlineto 6 0 rlineto 0 6 rlineto closepath
fill
67 25 moveto
0 -6 rlineto 6 0 rlineto 0 6 rlineto closepath
fill
85 25 moveto
0 -6 rlineto 6 0 rlineto 0 6 rlineto closepath
fill
91 25 moveto
0 -6 rlineto 6 0 rlineto 0 6 rlineto closepath
fill
109 25 moveto
0 -6 rlineto 6 0 rlineto 0 6 rlineto closepath
fill
121 25 moveto
0 -6 rlineto 6 0 rlineto 0 6 rlineto closepath
fill
133 25 moveto
0 -6 rlineto 6 0 rlineto 0 6 rlineto closepath
fill
145 25 moveto
0 -6 rlineto 6 0 rlineto 0 6 rlineto closepath
fill
151 25 moveto
0 -6 rlineto 6 0 rlineto 0 6 rlineto closepath
fill
157 25 moveto
0 -6 rlineto 6 0 rlineto 0 6 rlineto closepath
fill
163 25 moveto
0 -6 rlineto 6 0 rlineto 0 6 rlineto closepath
fill
175 25 moveto
0 -6 rlineto 6 0 rlineto 0 6 rlineto closepath
fill
13 19 moveto
0 -6 rlineto 6 0 rlineto 0 6 rlineto closepath
fill
19 19 moveto
0 -6 rlineto 6 0 rlineto 0 6 rlineto closepath
fill
25 19 moveto
0 -6 rlineto 6 0 rlineto 0 6 rlineto closepath
fill
31 19 moveto
0 -6 rlineto 6 0 rlineto 0 6 rlineto closepath
fill
37 19 moveto
0 -6 rlineto 6 0 rlineto 0 6 rlineto closepath
fill
43 19 moveto
0 -6 rlineto 6 0 rlineto 0 6 rlineto closepath
fill
49 19 moveto
0 -6 rlineto 6 0 rlineto 0 6 rlineto closepath
fill
61 19 moveto
0 -6 rlineto 6 0 rlineto 0 6 rlineto closepath
fill
85 19 moveto
0 -6 rlineto 6 0 rlineto 0 6 rlineto closepath
fill
97 19 moveto
0 -6 rlineto 6 0 rlineto 0 6 rlineto closepath
fill
115 19 moveto
0 -6 rlineto 6 0 rlineto 0 6 rlineto closepath
fill
127 19 moveto
0 -6 rlineto 6 0 rlineto 0 6 rlineto closepath
fill
169 19 moveto
0 -6 rlineto 6 0 rlineto 0 6 rlineto closepath
fill